{
  "$schema": "http://json-schema.org/draft-07/schema#",
  "type": "object",
  "title": "A simple Item",
  "required": [
    "id",
    "name",
    "tax",
    "price"
  ],
  "properties": {
    "id": {
      "type": "string",
      "description": "Unique ID for this item in the form of a UUID",
      "readOnly": true,
      "default": "",
      "example": "90192182-2f83-40cb-b324-ce4a43dd0024"
    },
    "name": {
      "type": "string",
      "description": "The user-friendly name of this item",
      "readOnly": true,
      "default": "",
      "example": "Milk"
    },
    "tax": {
      "type": "number",
      "description": "The tax rate of this item. e.g. 6 == 6%",
      "readOnly": true,
      "default": 0,
      "example": 6.0
    },
    "price": {
      "type": "number",
      "description": "The tax exclusive price of this item. e.g. 10.00 = RM10.00",
      "readOnly": true,
      "default": 0,
      "example": 10.00
    }
  }
}